<?xml version="1.0" encoding="utf-8"?>
<!-- Generator: Adobe Illustrator 19.1.0, SVG Export Plug-In . SVG Version: 6.00 Build 0)  -->
<svg version="1.1" id="Layer_1" xmlns="http://www.w3.org/2000/svg" xmlns:xlink="http://www.w3.org/1999/xlink" x="0px" y="0px"
	 viewBox="0 0 1854 435.2" style="enable-background:new 0 0 1854 435.2;" xml:space="preserve">
<style type="text/css">
	.st0{fill:#4990CD;}
	.st1{fill:#67A4D9;}
	.st2{fill:#93BFE6;}
</style>
<g>
	<polygon class="st0" points="0,435.2 0,139.3 21.1,139.3 21.1,217.2 62.5,217.2 62.5,175.7 234.5,175.7 234.5,300.1 342.8,300.1 
		342.8,76.3 419.3,76.3 419.3,205.6 489.4,205.6 489.4,69.6 532.4,24.9 583.3,24.9 583.3,6.6 610.4,6.6 610.4,208.9 667.8,208.1 
		667.8,6.6 694.8,6.6 694.8,31.5 780.8,31.5 814.3,66.3 814.3,252 882.8,252 882.8,90.4 979.9,90.4 979.9,127.7 1048.4,199 
		1048.4,144.2 1072.3,144.2 1072.3,200.6 1124.9,200.6 1236.8,84.1 1363.8,84.1 1363.8,136 1441.8,136 1441.8,53.1 1472.1,21.6 
		1472.1,0 1483.2,0 1483.2,19.9 1515.9,53.9 1515.9,165.8 1591.6,165.8 1591.6,73 1626.6,73 1626.6,127.7 1688.7,127.7 1688.7,76.3 
		1822.5,26.5 1822.5,111.1 1854,111.1 1854,435.2 	"/>
	<polygon class="st1" points="0,435.2 0,266.9 28.7,266.9 59.1,235.2 59.1,311.7 93.2,311.7 93.2,169.9 106.3,169.9 106.3,142.6 
		129,142.6 129,117.7 162.5,117.7 162.5,171.2 193.5,171.2 213.2,191.7 213.2,312.9 258,312.9 258,222.2 273,237.7 298,211.6 
		298,181.1 320.1,181.1 320.1,213.5 335.7,213.5 335.7,127.7 345.8,138.2 345.8,212.2 379.9,212.2 379.9,260.7 473,260.7 473,117.7 
		502.9,117.7 502.9,248.3 523.8,270 539.9,253.3 580.6,253.3 603.8,277.5 615.2,277.5 615.2,248.3 639.1,223.4 738.2,223.4 
		738.2,239.6 722.7,239.6 722.7,258.2 757.4,258.2 757.4,294.3 781.2,294.3 781.2,202.3 826.6,202.3 826.6,245.8 848.7,268.8 
		848.7,202.3 893.5,202.3 893.5,146.3 906.1,159.4 906.1,203.5 927,203.5 927,263.2 943.7,263.2 943.7,162.5 965.2,162.5 
		965.2,253.3 1019,253.3 1019,225.9 1056,225.9 1056,240.8 1083.5,240.8 1083.5,117.7 1103.8,117.7 1103.8,90.4 1113.3,90.4 
		1113.3,119 1125.3,119 1125.3,90.4 1137.2,90.4 1137.2,158.7 1217.3,158.7 1217.3,220.9 1240,220.9 1240,206 1259.1,206 
		1259.1,183.6 1310.4,183.6 1310.4,156.3 1441.8,156.3 1441.8,234.6 1462.1,234.6 1462.1,182.4 1483.6,182.4 1483.6,138.9 
		1532.6,138.9 1532.6,178.6 1590,178.6 1590,244.5 1606.7,244.5 1606.7,147.6 1615,147.6 1615,244.5 1670,244.5 1670,104 
		1715.4,104 1715.4,275.6 1754.8,275.6 1754.8,102.8 1801.4,102.8 1801.4,269.4 1824.1,269.4 1824.1,186.1 1854,186.1 1854,435.2 	
		"/>
	<polygon class="st2" points="1854,435.2 0,435.2 0,295.7 9.6,295.7 9.6,378.3 29.9,378.3 29.9,283.8 43,283.8 66.3,262.6 
		66.3,303.3 75.3,303.3 75.3,208.8 101.5,208.8 101.5,187.1 120.7,187.1 120.7,158.8 178.8,158.8 178.8,192.1 197.9,209.5 
		197.9,350.1 223.4,350.1 223.4,272.6 232.1,264.6 232.1,211.7 240.1,211.7 240.1,264.6 251.3,274.7 251.3,353 267.2,353 
		267.2,270.4 275.1,270.4 275.1,258.1 288.7,258.1 306.6,241.8 306.6,221.1 318.2,221.1 318.2,240.7 328.5,240.7 328.5,220.4 
		348.4,220.4 348.4,242.1 363.9,256.3 363.9,289.2 373.1,289.2 373.1,277.6 381.1,277.6 381.1,290.7 392.2,300.8 392.2,316.7 
		405,316.7 405,166.8 489.4,166.8 489.4,257.3 516.4,282 516.4,318.2 528.4,318.2 528.4,292.8 538.3,283.8 571.4,283.8 571.4,293.6 
		591.3,293.6 613.2,313.5 613.2,289.2 632.1,272 723.5,272 723.5,278.3 710,278.3 710,300.1 735.1,322.9 735.1,293.6 745,293.6 
		745,345 755.4,345 755.4,316 777.7,316 777.7,355.1 797.6,355.1 797.6,282 820.7,261 842.6,280.9 842.6,341.4 859.1,326.3 
		859.1,281.2 871.6,281.2 871.6,214.6 908.3,214.6 908.3,303.7 926,287.6 957.6,287.6 976.9,305.1 976.9,269.7 1011.8,269.7 
		1011.8,276.9 1044.4,276.9 1044.4,350.1 1056.4,350.1 1056.4,304.4 1068.3,304.4 1068.3,271.1 1083.5,271.1 1083.5,342.8 
		1098.6,342.8 1098.6,217.5 1108.2,217.5 1108.2,208.1 1187.8,220.4 1187.8,305.9 1200.5,305.9 1200.5,272.6 1222,272.6 1222,262.4 
		1236.4,262.4 1236.4,252.3 1269,252.3 1269,230.5 1294.5,230.5 1294.5,270.4 1311.2,270.4 1311.2,222.6 1333.5,222.6 1333.5,205.2 
		1346.3,205.2 1346.3,221.8 1366.2,221.8 1414,178.4 1414,299.4 1429.1,299.4 1429.1,271.8 1453.8,249.4 1468.1,249.4 1468.1,277.6 
		1488.8,277.6 1488.8,195.8 1506.3,195.8 1506.3,188.5 1535,188.5 1535,197.9 1553.3,197.9 1553.3,240 1593.5,276.5 1593.5,309.9 
		1607.5,309.9 1607.5,275.5 1630.6,254.4 1630.6,190.7 1642.5,190.7 1642.5,165.3 1662.4,165.3 1662.4,144.3 1669.6,144.3 
		1669.6,127.7 1677.6,127.7 1677.6,144.3 1693.5,144.3 1693.5,193.6 1738.1,193.6 1738.1,303.7 1757.2,303.7 1757.2,332 
		1788.3,303.7 1788.3,333.4 1807.4,333.4 1807.4,241.4 1854,241.4 	"/>
</g>
</svg>
