{
    "environment":"development",
    "production": {
        "apiUrl": "http://fsrgen.gqaustralia.com.au",
        "uploadUrl": "http://frontend-d.fsr.local/aws/server.php"
    },
    "development": {
        "apiUrl": "http://backend.fsr.local",
        "uploadUrl": "http://frontend-d.fsr.local/aws/server.php"
    },
    "testing": {
        "apiUrl": "http://backend.fsr.local",
        "uploadUrl": "http://frontend-d.fsr.local/aws/server.php"
    }
}
