<?xml version="1.0" encoding="utf-8"?>
<!-- Generator: Adobe Illustrator 19.1.0, SVG Export Plug-In . SVG Version: 6.00 Build 0)  -->
<svg version="1.1" id="Cafeteria_1_" xmlns="http://www.w3.org/2000/svg" xmlns:xlink="http://www.w3.org/1999/xlink" x="0px"
	 y="0px" viewBox="0 0 327.6 240" style="enable-background:new 0 0 327.6 240;" xml:space="preserve">
<style type="text/css">
	.st0{fill:#E0BC8F;}
	.st1{fill:#8F6B52;}
	.st2{fill:#563F31;}
	.st3{fill:#E88949;}
	.st4{fill:#9B7F5D;}
	.st5{fill:#553F32;}
	.st6{fill:#8E6950;}
	.st7{fill:#C29664;}
	.st8{fill:#FFFFFF;}
	.st9{fill:#A98354;}
	.st10{fill:#BC9264;}
	.st11{fill:#C13607;}
	.st12{fill:#ED6A2C;}
	.st13{fill:#EEDDAE;}
	.st14{opacity:0.8118;}
	.st15{opacity:0.2;}
	.st16{fill:#DFBB8E;}
	.st17{fill-rule:evenodd;clip-rule:evenodd;fill:#BF4918;}
	.st18{fill-rule:evenodd;clip-rule:evenodd;fill:#FE9112;}
	.st19{fill:#EC682C;}
	.st20{fill:#FE9112;}
	.st21{enable-background:new    ;}
	.st22{fill:#835F46;}
	.st23{fill:#F2D29F;}
	.st24{fill:#885B43;}
	.st25{fill:#B29D6F;}
	.st26{fill:#E2CC96;}
	.st27{fill:#A37D4E;}
	.st28{fill:#A35C36;}
	.st29{fill:#915631;}
	.st30{clip-path:url(#SVGID_1_);fill:#FFFFFF;}
	.st31{clip-path:url(#SVGID_1_);fill:#EA4E4E;}
	.st32{clip-path:url(#SVGID_1_);fill:#9ACE0D;}
</style>
<g id="Brown_Base_1_">
	<g id="Shape_2">
		<g>
			<polygon class="st0" points="155.8,37.9 3.1,37.8 3.1,47 22.3,53.2 138,52.5 155.9,46.7 			"/>
		</g>
	</g>
	<g id="Shape_1_copy_2">
		<g>
			<rect x="20.1" y="52" class="st0" width="120.4" height="187.9"/>
		</g>
	</g>
	<g id="Shape_1_copy">
		<g>
			<rect x="140.4" y="88.8" class="st0" width="181.1" height="151.3"/>
		</g>
	</g>
</g>
<g id="Door_1_">
	<path class="st1" d="M112.5,167.9c0-18.6-15-33.7-33.4-33.7s-33.4,15.1-33.4,33.7c0,1.2,0.1,2.3,0.2,3.5v68.9h66.4v-67.5
		C112.4,171.1,112.5,169.5,112.5,167.9z"/>
</g>
<g id="Door_copy_1_">
	<path class="st2" d="M107.5,171.6c0-17.7-12.9-32-28.8-32s-28.8,14.3-28.8,32c0,1.1,0.1,2.2,0.2,3.3v65.3h57.2v-63.9
		C107.4,174.7,107.5,173.2,107.5,171.6z"/>
	<g id="Shape_28_8_">
		<g>
			<rect x="79.4" y="182" class="st3" width="10.5" height="14.7"/>
		</g>
	</g>
	<g id="Shape_28_10_">
		<g>
			<rect x="92.4" y="182" class="st3" width="10.5" height="14.7"/>
		</g>
	</g>
	<g id="Shape_28_14_">
		<g>
			<rect x="53.4" y="182" class="st3" width="10.5" height="14.7"/>
		</g>
	</g>
	<g id="Shape_28_12_">
		<g>
			<rect x="66.4" y="182" class="st3" width="10.5" height="14.7"/>
		</g>
	</g>
	<g id="Shape_28_22_">
		<g>
			<rect x="79.4" y="199" class="st3" width="10.5" height="14.7"/>
		</g>
	</g>
	<g id="Shape_28_20_">
		<g>
			<rect x="92.4" y="199" class="st3" width="10.5" height="14.7"/>
		</g>
	</g>
	<g id="Shape_28_18_">
		<g>
			<rect x="53.4" y="199" class="st3" width="10.5" height="14.7"/>
		</g>
	</g>
	<g id="Shape_28_16_">
		<g>
			<rect x="66.4" y="199" class="st3" width="10.5" height="14.7"/>
		</g>
	</g>
	<g id="Shape_28_30_">
		<g>
			<rect x="79.4" y="216" class="st3" width="10.5" height="14.7"/>
		</g>
	</g>
	<g id="Shape_28_28_">
		<g>
			<rect x="92.4" y="216" class="st3" width="10.5" height="14.7"/>
		</g>
	</g>
	<g id="Shape_28_26_">
		<g>
			<rect x="53.4" y="216" class="st3" width="10.5" height="14.7"/>
		</g>
	</g>
	<g id="Shape_28_24_">
		<g>
			<rect x="66.4" y="216" class="st3" width="10.5" height="14.7"/>
		</g>
	</g>
</g>
<g id="Shape_35">
	<g>
		<circle class="st4" cx="160.2" cy="110.9" r="2.8"/>
	</g>
</g>
<g id="Shape_35_copy">
	<g>
		<circle class="st4" cx="303.9" cy="110.9" r="2.8"/>
	</g>
</g>
<g id="CAFETERIA">
	<g>
		<path class="st5" d="M203.6,108.5v-2.2c0-0.9-0.7-1.6-1.6-1.6c-0.9,0-1.6,0.7-1.6,1.6v9c0,0.9,0.7,1.6,1.6,1.6
			c0.9,0,1.6-0.7,1.6-1.6v-1.9h1.1v1.9c0,1.5-1.2,2.7-2.7,2.7c-1.5,0-2.7-1.2-2.7-2.7v-9c0-1.5,1.2-2.7,2.7-2.7
			c1.5,0,2.7,1.2,2.7,2.7v2.1L203.6,108.5z"/>
		<path class="st5" d="M213.8,117.8h-1.1l-0.6-3.6h-2.8l-0.5,3.6h-1.1l2.1-13.9h1.8L213.8,117.8z M209.5,113.1h2.5l-1.2-8.1h0
			L209.5,113.1z"/>
		<path class="st5" d="M218.2,104.9v5.3h2.5v1.1h-2.5v6.4h-1.1v-13.9h4.4v1.1H218.2z"/>
		<path class="st5" d="M226.2,104.9v5.3h2.5v1.1h-2.5v5.3h3.5v1.1h-4.6v-13.9h4.4v1.1H226.2z"/>
		<path class="st5" d="M237.6,104.9h-1.9v12.8h-1.1v-12.8h-1.9v-1.1h4.9V104.9z"/>
		<path class="st5" d="M242.1,104.9v5.3h2.5v1.1h-2.5v5.3h3.5v1.1h-4.6v-13.9h4.4v1.1H242.1z"/>
		<path class="st5" d="M254.4,117.8h-1.1v-4.6c0-1-0.8-1.8-1.8-1.8h-1.3v6.4h-1.1v-13.9h2.4c1.6,0,2.9,1.3,2.9,2.9v1.7
			c0,1-0.5,1.8-1.2,2.3c0.7,0.5,1.2,1.4,1.2,2.3V117.8z M251.6,110.3c1,0,1.8-0.8,1.8-1.8v-1.7c0-1-0.8-1.8-1.8-1.8h-1.3v5.3H251.6z
			"/>
		<path class="st5" d="M258.3,117.8v-13.9h1.1v13.9H258.3z"/>
		<path class="st5" d="M268.8,117.8h-1.1l-0.6-3.6h-2.8l-0.5,3.6h-1.1l2.1-13.9h1.8L268.8,117.8z M264.5,113.1h2.5l-1.2-8.1h0
			L264.5,113.1z"/>
	</g>
</g>
<g id="Group_1_1_">
	<path class="st6" d="M293.5,168.1c0-15.9-13.2-28.8-29.5-28.8h-64.2c-15.5,0-28.2,11.6-29.4,26.4h-0.1v2.4v3.8v68.5h123.1V175
		c0.1-1,0.2-2,0.2-3V168.1z"/>
</g>
<g id="Group_1_copy_1_">
	<path class="st5" d="M289.5,171.4c0-15.2-12.2-27.5-27.4-27.5h-59.5c-14.3,0-26.1,11.1-27.3,25.2h-0.1v2.3v3.7v65.4h114v-62.6
		c0.1-0.9,0.1-1.9,0.1-2.9V171.4z"/>
</g>
<g id="Arc_1_">
	<path class="st7" d="M78.7,145c-12.3,0-22.2,9.9-22.2,22.2h44.4C100.9,155,91,145,78.7,145z"/>
</g>
<g id="Door_Window_3_">
	<g id="Shape_31_copy_2_xA0_Image_3_">
	</g>
	<g id="Shape_31_copy_3_xA0_Image_3_">
	</g>
	<g id="Shape_31_copy_4_xA0_Image_3_">
	</g>
	<g id="Shape_31_copy_5_xA0_Image_3_">
	</g>
	<g id="Shape_31_copy_6_xA0_Image_3_">
	</g>
</g>
<g id="Door_Window_copy_4_1_">
	<g id="Shape_31_copy_2_xA0_Image_1_">
	</g>
	<g id="Shape_31_copy_3_xA0_Image_1_">
	</g>
	<g id="Shape_31_copy_4_xA0_Image_1_">
	</g>
	<g id="Shape_31_copy_5_xA0_Image_1_">
	</g>
	<g id="Shape_31_copy_6_xA0_Image_1_">
	</g>
</g>
<g id="Light_3_">
	<g id="Shape_34">
		<g>
			<path class="st8" d="M126,192.2c-2.8,0-5.5,1-5.5,1l2.9,11.6h5.2l3.2-11.6C131.9,193.2,128.9,192.2,126,192.2z"/>
		</g>
	</g>
	<path d="M132.2,193.1l-3.5-0.7c0.1-0.3,0.2-0.6,0.2-0.9c0-1.4-1-2.6-2.4-2.8v-2.3h1.5c0.4,0,0.7-0.3,0.7-0.7c0-0.4-0.3-0.7-0.7-0.7
		h-3.4c-0.4,0-0.7,0.3-0.7,0.7c0,0.4,0.3,0.7,0.7,0.7h1.4v2.3c-1.6,0-2.8,1.3-2.8,2.8c0,0.4,0.1,0.7,0.2,1l-3.3,0.6
		c-0.1,0-0.2,0.1-0.2,0.3c0,0.1,0.1,0.2,0.3,0.2l3.4-0.6c0.5,0.8,1.4,1.4,2.4,1.4v10.1h-2c-0.5,0-1,0.3-1,0.7c0,0.4,0.4,0.7,1,0.7
		h4.5c0.5,0,1-0.3,1-0.7c0-0.4-0.4-0.7-1-0.7h-2.1v-10.1c0.9-0.1,1.6-0.7,2-1.4l3.6,0.7c0.1,0,0.2-0.1,0.3-0.2
		S132.3,193.1,132.2,193.1z"/>
</g>
<g id="Light_copy_1_">
	<g id="Shape_34_1_">
		<g>
			<path class="st8" d="M33,192.2c-2.8,0-5.5,1-5.5,1l2.9,11.6h5.2l3.2-11.6C38.9,193.2,35.9,192.2,33,192.2z"/>
		</g>
	</g>
	<path d="M39.2,193.1l-3.5-0.7c0.1-0.3,0.2-0.6,0.2-0.9c0-1.4-1-2.6-2.4-2.8v-2.3H35c0.4,0,0.7-0.3,0.7-0.7c0-0.4-0.3-0.7-0.7-0.7
		h-3.4c-0.4,0-0.7,0.3-0.7,0.7c0,0.4,0.3,0.7,0.7,0.7H33v2.3c-1.6,0-2.8,1.3-2.8,2.8c0,0.4,0.1,0.7,0.2,1l-3.3,0.6
		c-0.1,0-0.2,0.1-0.2,0.3s0.1,0.2,0.3,0.2l3.4-0.6c0.5,0.8,1.4,1.4,2.4,1.4v10.1h-2c-0.5,0-1,0.3-1,0.7c0,0.4,0.4,0.7,1,0.7h4.5
		c0.5,0,1-0.3,1-0.7c0-0.4-0.4-0.7-1-0.7h-2.1v-10.1c0.9-0.1,1.6-0.7,2-1.4l3.6,0.7c0.1,0,0.2-0.1,0.3-0.2
		C39.4,193.2,39.3,193.1,39.2,193.1z"/>
</g>
<g id="Shadows_1_">
	<g id="Shape_3">
		<g>
			<rect x="20" y="40.5" class="st9" width="120.3" height="13.9"/>
		</g>
	</g>
	<g id="Shape_5">
		<g>
			<path class="st9" d="M324.1,127H141.7c-1.2,0-2.3,1-2.3,2.3c0,1.2,1,2.3,2.3,2.3h182.4c1.2,0,2.3-1,2.3-2.3
				C326.4,128,325.4,127,324.1,127z"/>
		</g>
	</g>
	<g id="Shape_3_copy">
		<g>
			<rect x="140.3" y="91" class="st9" width="183.6" height="5.6"/>
		</g>
	</g>
	<g id="Shape_4">
		<g>
			<path class="st9" d="M139.7,127.3H19c-1,0-1.9,0.8-1.9,1.9c0,1,0.8,1.9,1.9,1.9h120.7c1,0,1.9-0.8,1.9-1.9
				C141.6,128.1,140.7,127.3,139.7,127.3z"/>
		</g>
	</g>
	<g id="Shape_6">
		<g>
			<path class="st10" d="M46.9,168.8H18.6c-1.2,0-2.3,1-2.3,2.3s1,2.3,2.3,2.3h28.3c1.2,0,2.3-1,2.3-2.3S48.2,168.8,46.9,168.8z"/>
		</g>
	</g>
	<g id="Shape_6_copy">
		<g>
			<path class="st9" d="M139.1,168.6h-28.3c-1.2,0-2.3,1-2.3,2.3s1,2.3,2.3,2.3h28.3c1.2,0,2.3-1,2.3-2.3S140.3,168.6,139.1,168.6z"
				/>
		</g>
	</g>
</g>
<g id="Roof_2_1_">
	<polygon class="st11" points="306.9,81.4 306.9,79.8 304.5,79.8 304.5,81.4 289.7,81.4 289.7,79.8 287.4,79.8 287.4,81.4 
		272.6,81.4 272.6,79.8 270.2,79.8 270.2,81.4 255.5,81.4 255.5,79.8 253.1,79.8 253.1,81.4 238.4,81.4 238.4,79.8 236,79.8 
		236,81.4 221.3,81.4 221.3,79.8 218.9,79.8 218.9,81.4 204.1,81.4 204.1,79.8 201.8,79.8 201.8,81.4 187,81.4 187,79.8 184.6,79.8 
		184.6,81.4 169.9,81.4 169.9,79.8 167.5,79.8 167.5,81.4 152.8,81.4 152.8,79.8 150.4,79.8 150.4,81.4 140.3,81.4 140.3,91.2 
		323.9,91.2 323.9,81.4 	"/>
	<g id="Shape_14_copy_10">
		<g>
			<rect x="321.6" y="79.8" class="st11" width="2.4" height="3.7"/>
		</g>
	</g>
	<g id="Shape_15">
		<g>
			<rect x="144.2" y="83.8" class="st12" width="6.1" height="6.5"/>
		</g>
	</g>
	<g id="Shape_15_copy">
		<g>
			<rect x="155.7" y="83.8" class="st12" width="6.1" height="6.5"/>
		</g>
	</g>
	<g id="Shape_15_copy_2">
		<g>
			<rect x="167.2" y="83.8" class="st12" width="6.1" height="6.5"/>
		</g>
	</g>
	<g id="Shape_15_copy_3">
		<g>
			<rect x="178.6" y="83.8" class="st12" width="6.1" height="6.5"/>
		</g>
	</g>
	<g id="Shape_15_copy_4">
		<g>
			<rect x="190.1" y="83.8" class="st12" width="6.1" height="6.5"/>
		</g>
	</g>
	<g id="Shape_15_copy_5">
		<g>
			<rect x="201.6" y="83.8" class="st12" width="6.1" height="6.5"/>
		</g>
	</g>
	<g id="Shape_15_copy_6">
		<g>
			<rect x="213.1" y="83.8" class="st12" width="6.1" height="6.5"/>
		</g>
	</g>
	<g id="Shape_15_copy_7">
		<g>
			<rect x="224.5" y="83.8" class="st12" width="6.1" height="6.5"/>
		</g>
	</g>
	<g id="Shape_15_copy_8">
		<g>
			<rect x="236.2" y="83.8" class="st12" width="6.1" height="6.5"/>
		</g>
	</g>
	<g id="Shape_15_copy_9">
		<g>
			<rect x="247.6" y="83.8" class="st12" width="6.1" height="6.5"/>
		</g>
	</g>
	<g id="Shape_15_copy_10">
		<g>
			<rect x="259.1" y="83.8" class="st12" width="6.1" height="6.5"/>
		</g>
	</g>
	<g id="Shape_15_copy_11">
		<g>
			<rect x="270.6" y="83.8" class="st12" width="6.1" height="6.5"/>
		</g>
	</g>
	<g id="Shape_15_copy_12">
		<g>
			<rect x="282.1" y="83.8" class="st12" width="6.1" height="6.5"/>
		</g>
	</g>
	<g id="Shape_15_copy_13">
		<g>
			<rect x="293.5" y="83.8" class="st12" width="6.1" height="6.5"/>
		</g>
	</g>
	<g id="Shape_15_copy_14">
		<g>
			<rect x="305" y="83.8" class="st12" width="6.1" height="6.5"/>
		</g>
	</g>
	<g id="Shape_15_copy_15">
		<g>
			<rect x="316.5" y="83.8" class="st12" width="6.1" height="6.5"/>
		</g>
	</g>
</g>
<g id="Light_2_">
	<g id="Shape_7">
		<g>
			<rect x="140.2" y="166.4" class="st13" width="185.9" height="5"/>
		</g>
	</g>
	<g id="Shape_3_copy_2">
		<g>
			<rect x="20" y="38.3" class="st13" width="120.3" height="13.9"/>
		</g>
	</g>
	<g id="Shape_5_copy">
		<g>
			<path class="st13" d="M324.1,125.6H141.7c-1.2,0-2.3,1-2.3,2.3s1,2.3,2.3,2.3h182.4c1.2,0,2.3-1,2.3-2.3S325.4,125.6,324.1,125.6
				z"/>
		</g>
	</g>
	<g id="Shape_3_copy_3">
		<g>
			<rect x="140.3" y="88.7" class="st13" width="183.6" height="5.6"/>
		</g>
	</g>
	<g id="Shape_4_copy">
		<g>
			<path class="st13" d="M139.7,125.9H19c-1,0-1.9,0.8-1.9,1.9c0,1,0.8,1.9,1.9,1.9h120.7c1,0,1.9-0.8,1.9-1.9
				C141.6,126.7,140.7,125.9,139.7,125.9z"/>
		</g>
	</g>
	<g id="Shape_6_copy_2">
		<g>
			<path class="st13" d="M46.9,167.2H18.6c-1.2,0-2.3,1-2.3,2.3s1,2.3,2.3,2.3h28.3c1.2,0,2.3-1,2.3-2.3S48.2,167.2,46.9,167.2z"/>
		</g>
	</g>
	<g id="Shape_6_copy_3">
		<g>
			<path class="st13" d="M139.1,167.2h-28.3c-1.2,0-2.3,1-2.3,2.3s1,2.3,2.3,2.3h28.3c1.2,0,2.3-1,2.3-2.3S140.3,167.2,139.1,167.2z
				"/>
		</g>
	</g>
	<g id="Shape_1" class="st14">
		<g>
			<rect x="140.2" y="88.7" class="st9" width="4.1" height="151.4"/>
		</g>
	</g>
	<polygon class="st11" points="128.7,116.4 128.7,114.8 127.1,114.8 127.1,116.4 117.1,116.4 117.1,114.8 115.5,114.8 115.5,116.4 
		105.5,116.4 105.5,114.8 103.9,114.8 103.9,116.4 93.9,116.4 93.9,114.8 92.3,114.8 92.3,116.4 82.3,116.4 82.3,114.8 80.7,114.8 
		80.7,116.4 70.7,116.4 70.7,114.8 69.1,114.8 69.1,116.4 59.1,116.4 59.1,114.8 57.5,114.8 57.5,116.4 47.5,116.4 47.5,114.8 
		45.9,114.8 45.9,116.4 35.9,116.4 35.9,114.8 34.3,114.8 34.3,116.4 24.3,116.4 24.3,114.8 22.7,114.8 22.7,116.4 15.9,116.4 
		15.9,126.2 140.2,126.2 140.2,116.4 	"/>
	<g id="Shape_15_copy_5_2_">
		<g>
			<rect x="19.9" y="118.4" class="st12" width="6.1" height="6.5"/>
		</g>
	</g>
	<g id="Shape_15_copy_6_2_">
		<g>
			<rect x="31" y="118.4" class="st12" width="6.1" height="6.5"/>
		</g>
	</g>
	<g id="Shape_15_copy_7_2_">
		<g>
			<rect x="42.1" y="118.4" class="st12" width="6.1" height="6.5"/>
		</g>
	</g>
	<g id="Shape_15_copy_8_2_">
		<g>
			<rect x="53.2" y="118.4" class="st12" width="6.1" height="6.5"/>
		</g>
	</g>
	<g id="Shape_15_copy_9_2_">
		<g>
			<rect x="64.3" y="118.4" class="st12" width="6.1" height="6.5"/>
		</g>
	</g>
	<g id="Shape_15_copy_10_2_">
		<g>
			<rect x="75.4" y="118.4" class="st12" width="6.1" height="6.5"/>
		</g>
	</g>
	<g id="Shape_15_copy_11_2_">
		<g>
			<rect x="86.5" y="118.4" class="st12" width="6.1" height="6.5"/>
		</g>
	</g>
	<g id="Shape_15_copy_12_2_">
		<g>
			<rect x="97.6" y="118.4" class="st12" width="6.1" height="6.5"/>
		</g>
	</g>
	<g id="Shape_15_copy_13_2_">
		<g>
			<rect x="108.7" y="118.4" class="st12" width="6.1" height="6.5"/>
		</g>
	</g>
	<g id="Shape_15_copy_14_2_">
		<g>
			<rect x="119.7" y="118.4" class="st12" width="6.1" height="6.5"/>
		</g>
	</g>
	<g id="Shape_15_copy_15_2_">
		<g>
			<rect x="130.8" y="118.4" class="st12" width="6.1" height="6.5"/>
		</g>
	</g>
</g>
<g id="Shape_40" class="st15">
	<g>
		<rect x="3.1" y="37.7" width="152.6" height="6.4"/>
	</g>
</g>
<g id="Shape_39">
	<g>
		<rect x="30.6" y="36.4" class="st16" width="5.6" height="10.3"/>
	</g>
</g>
<g id="Shape_39_copy">
	<g>
		<rect x="45.8" y="36.4" class="st16" width="5.6" height="10.3"/>
	</g>
</g>
<g id="Shape_39_copy_2">
	<g>
		<rect x="61.2" y="36.4" class="st16" width="5.6" height="10.3"/>
	</g>
</g>
<g id="Shape_39_copy_3">
	<g>
		<rect x="76.4" y="36.4" class="st16" width="5.6" height="10.3"/>
	</g>
</g>
<g id="Shape_39_copy_4">
	<g>
		<rect x="91.5" y="36.4" class="st16" width="5.6" height="10.3"/>
	</g>
</g>
<g id="Shape_39_copy_5">
	<g>
		<rect x="106.9" y="36.4" class="st16" width="5.6" height="10.3"/>
	</g>
</g>
<g id="Shape_39_copy_6">
	<g>
		<rect x="122.1" y="36.4" class="st16" width="5.6" height="10.3"/>
	</g>
</g>
<g id="Roof_1_1_">
	<g id="Shape_9">
		<g>
			<rect x="0.5" y="35" class="st17" width="159.6" height="4.2"/>
		</g>
	</g>
	<g id="Shape_8">
		<g>
			<polygon class="st18" points="81,0 0,35 159.7,35 			"/>
		</g>
	</g>
	<g id="Shape_8_copy">
		<g>
			<polygon class="st19" points="80.8,6.9 12.1,35 147,35.1 			"/>
		</g>
	</g>
	<g id="Shape_10">
		<g>
			<circle class="st20" cx="8.6" cy="30.6" r="2.9"/>
		</g>
	</g>
	<g id="Shape_10_copy_7">
		<g>
			<circle class="st20" cx="151.1" cy="30.6" r="2.9"/>
		</g>
	</g>
	<g id="Shape_10_copy">
		<g>
			<circle class="st20" cx="27.7" cy="22.7" r="2.9"/>
		</g>
	</g>
	<g id="Shape_10_copy_6">
		<g>
			<circle class="st20" cx="132" cy="22.7" r="2.9"/>
		</g>
	</g>
	<g id="Shape_10_copy_2">
		<g>
			<circle class="st20" cx="43.9" cy="16.1" r="2.9"/>
		</g>
	</g>
	<g id="Shape_10_copy_5">
		<g>
			<circle class="st20" cx="115.1" cy="15.4" r="2.9"/>
		</g>
	</g>
	<g id="Shape_10_copy_3">
		<g>
			<circle class="st20" cx="61" cy="9.1" r="2.9"/>
		</g>
	</g>
	<g id="Shape_10_copy_4">
		<g>
			<circle class="st20" cx="99.2" cy="8.6" r="2.9"/>
		</g>
	</g>
</g>
<g id="Roof_3_1_">
	
		<g id="Shape_17__x2B__Shape_18__x2B__Shape_18_copy__x2B__Shape_18_copy_2__x2B__Shape_18_copy_3__x2B__Shape_18_copy_4__x2B__Shape_18_copy_5__x2B__Shape_18_copy_6__x2B__Shape_18_copy_7__x2B__Shape_18_copy_8__x2B__Shape_18_copy_9__x2B__Shape_18_copy_10__x2B__Sha" class="st21">
	</g>
</g>
<g id="Column_1_">
	<g id="Shape_19">
		<g>
			<rect x="111" y="217.3" class="st22" width="29.5" height="22.8"/>
		</g>
	</g>
	<g>
		<rect x="109.9" y="217.3" class="st23" width="30.5" height="6.2"/>
		<rect x="109.9" y="225.5" class="st23" width="30.5" height="6.2"/>
		<rect x="109.9" y="233.8" class="st23" width="30.5" height="6.2"/>
	</g>
</g>
<g id="Column_copy_1_">
	<g id="Shape_19_1_">
		<g>
			<rect x="19.3" y="218.1" class="st22" width="28.6" height="21.3"/>
		</g>
	</g>
	<g>
		<rect x="18.3" y="217.3" class="st23" width="30.5" height="6.2"/>
		<rect x="18.3" y="225.5" class="st23" width="30.5" height="6.2"/>
		<rect x="18.3" y="233.8" class="st23" width="30.5" height="6.2"/>
	</g>
</g>
<g id="Window_1_">
	<path class="st24" d="M96.1,74.8c0-0.6,0-1.2-0.1-1.9v-0.3h0c-1.1-8.4-8.2-14.9-16.9-14.9s-15.8,6.5-16.9,14.9h-0.1v0.4
		c-0.1,0.6-0.1,1.2-0.1,1.7s0,1.2,0.1,1.7v31H96V76.7C96.1,76.1,96.1,75.5,96.1,74.8z"/>
	<path class="st24" d="M96.1,74.8c0-0.6,0-1.2-0.1-1.9v-0.3h0c-1.1-8.4-8.2-14.9-16.9-14.9s-15.8,6.5-16.9,14.9h-0.1v0.4
		c-0.1,0.6-0.1,1.2-0.1,1.7s0,1.2,0.1,1.7v31H96V76.7C96.1,76.1,96.1,75.5,96.1,74.8z"/>
	<path class="st7" d="M64.7,105.1V76.4l0-0.1c-0.1-0.5-0.1-1-0.1-1.5c0-0.5,0-1,0.1-1.4l0-0.4c0.9-7.2,7.1-12.7,14.4-12.7
		S92.6,65.8,93.5,73l0,0.3c0.1,0.5,0.1,1.1,0.1,1.6c0,0.5,0,1-0.1,1.6l0,0.1v28.5H64.7z"/>
</g>
<g id="Window_copy_xA0_Image_1_">
</g>
<g id="Window_Seat_xA0_Image_1_">
</g>
<g id="Window_Seat_2_">
	<path class="st25" d="M79.1,116.5c-3.4,0-6.1-2.7-6.2-6h-12c-1.8,0-3.2-1.4-3.2-3.2s1.4-2.2,3.2-2.2h36.5c1.8,0,3.2,0.4,3.2,2.2
		s-1.4,3.2-3.2,3.2h-12C85.2,113.8,82.4,116.5,79.1,116.5z"/>
	<path class="st25" d="M98.3,105.1H59.9c-1.2,0-2.2,1-2.2,2.2s1,2.2,2.2,2.2H74c0,0.3-0.1,0.5-0.1,0.8c0,2.9,2.3,5.2,5.2,5.2
		c2.9,0,5.2-2.3,5.2-5.2c0-0.3,0-0.5-0.1-0.8h14.1c1.2,0,2.2-1,2.2-2.2S99.5,105.1,98.3,105.1z"/>
	<path class="st26" d="M98.3,105.1H59.9c-1.2,0-2.2,1-2.2,2.2s1,2.2,2.2,2.2H74c0,0.3-0.1,0.5-0.1,0.8c0,2.9,2.3,5.2,5.2,5.2
		c2.9,0,5.2-2.3,5.2-5.2c0-0.3,0-0.5-0.1-0.8h14.1c1.2,0,2.2-1,2.2-2.2S99.5,105.1,98.3,105.1z"/>
</g>
<g id="Small_Window_3_">
	<path class="st27" d="M122.8,79.6c0-2.7-2.2-4.9-4.9-4.9c-2.6,0-4.7,2-4.9,4.6h0v15.5h9.8V80.2C122.7,80,122.8,79.8,122.8,79.6z"/>
</g>
<g id="Small_Window_2_">
	<path class="st27" d="M46.7,79.6c0-2.7-2.2-4.9-4.9-4.9c-2.6,0-4.7,2-4.9,4.6h0v15.5h9.8V80.2C46.7,80,46.7,79.8,46.7,79.6z"/>
</g>
<g id="Door_Window_2_">
	<g id="Shape_28">
		<g>
			<rect x="180.1" y="203.4" class="st3" width="6.7" height="9.2"/>
		</g>
	</g>
	<g id="Shape_28_copy_9">
		<g>
			<rect x="180.1" y="192.8" class="st3" width="6.7" height="9.2"/>
		</g>
	</g>
	<g id="Shape_28_copy_10">
		<g>
			<rect x="188.3" y="192.8" class="st3" width="6.7" height="9.2"/>
		</g>
	</g>
	<g id="Shape_28_copy_13">
		<g>
			<rect x="196.4" y="192.8" class="st3" width="6.7" height="9.2"/>
		</g>
	</g>
	<g id="Shape_28_copy_3">
		<g>
			<rect x="180.1" y="214.1" class="st3" width="6.7" height="9.2"/>
		</g>
	</g>
	<g id="Shape_28_copy_4">
		<g>
			<rect x="180.1" y="224.7" class="st3" width="6.7" height="9.2"/>
		</g>
	</g>
	<g id="Shape_28_copy">
		<g>
			<rect x="188.3" y="203.4" class="st3" width="6.7" height="9.2"/>
		</g>
	</g>
	<g id="Shape_28_copy_5">
		<g>
			<rect x="188.3" y="214.3" class="st3" width="6.7" height="9.2"/>
		</g>
	</g>
	<g id="Shape_28_copy_6">
		<g>
			<rect x="188.3" y="224.7" class="st3" width="6.7" height="9.2"/>
		</g>
	</g>
	<g id="Shape_28_copy_2">
		<g>
			<rect x="196.2" y="203.4" class="st3" width="6.7" height="9.2"/>
		</g>
	</g>
	<g id="Shape_28_copy_7">
		<g>
			<rect x="196.2" y="214.5" class="st28" width="6.7" height="9.2"/>
		</g>
	</g>
	<g id="Shape_28_copy_8">
		<g>
			<rect x="196.2" y="224.7" class="st29" width="6.7" height="9.2"/>
		</g>
	</g>
</g>
<g id="Door_Window_copy_2_1_">
	<g id="Shape_28_1_">
		<g>
			<rect x="234.1" y="203.4" class="st3" width="6.7" height="9.2"/>
		</g>
	</g>
	<g id="Shape_28_copy_9_1_">
		<g>
			<rect x="234.1" y="192.8" class="st3" width="6.7" height="9.2"/>
		</g>
	</g>
	<g id="Shape_28_copy_10_1_">
		<g>
			<rect x="242.3" y="192.8" class="st3" width="6.7" height="9.2"/>
		</g>
	</g>
	<g id="Shape_28_copy_13_1_">
		<g>
			<rect x="250.4" y="192.8" class="st3" width="6.7" height="9.2"/>
		</g>
	</g>
	<g id="Shape_28_copy_3_1_">
		<g>
			<rect x="234.1" y="214.1" class="st3" width="6.7" height="9.2"/>
		</g>
	</g>
	<g id="Shape_28_copy_4_1_">
		<g>
			<rect x="234.1" y="224.7" class="st3" width="6.7" height="9.2"/>
		</g>
	</g>
	<g id="Shape_28_copy_1_">
		<g>
			<rect x="242.3" y="203.4" class="st3" width="6.7" height="9.2"/>
		</g>
	</g>
	<g id="Shape_28_copy_5_1_">
		<g>
			<rect x="242.3" y="214.3" class="st3" width="6.7" height="9.2"/>
		</g>
	</g>
	<g id="Shape_28_copy_6_1_">
		<g>
			<rect x="242.3" y="224.7" class="st3" width="6.7" height="9.2"/>
		</g>
	</g>
	<g id="Shape_28_copy_2_1_">
		<g>
			<rect x="250.2" y="203.4" class="st3" width="6.7" height="9.2"/>
		</g>
	</g>
	<g id="Shape_28_copy_7_1_">
		<g>
			<rect x="250.2" y="214.5" class="st28" width="6.7" height="9.2"/>
		</g>
	</g>
	<g id="Shape_28_copy_8_1_">
		<g>
			<rect x="250.2" y="224.7" class="st29" width="6.7" height="9.2"/>
		</g>
	</g>
</g>
<g id="Door_Window_copy_1_">
	<g id="Shape_28_2_">
		<g>
			<rect x="207.1" y="203.4" class="st3" width="6.7" height="9.2"/>
		</g>
	</g>
	<g id="Shape_28_copy_9_2_">
		<g>
			<rect x="207.1" y="192.8" class="st3" width="6.7" height="9.2"/>
		</g>
	</g>
	<g id="Shape_28_copy_10_2_">
		<g>
			<rect x="215.3" y="192.8" class="st3" width="6.7" height="9.2"/>
		</g>
	</g>
	<g id="Shape_28_copy_13_2_">
		<g>
			<rect x="223.4" y="192.8" class="st3" width="6.7" height="9.2"/>
		</g>
	</g>
	<g id="Shape_28_copy_3_2_">
		<g>
			<rect x="207.1" y="214.1" class="st3" width="6.7" height="9.2"/>
		</g>
	</g>
	<g id="Shape_28_copy_4_2_">
		<g>
			<rect x="207.1" y="224.7" class="st29" width="6.7" height="9.2"/>
		</g>
	</g>
	<g id="Shape_28_copy_2_">
		<g>
			<rect x="215.3" y="203.4" class="st3" width="6.7" height="9.2"/>
		</g>
	</g>
	<g id="Shape_28_copy_5_2_">
		<g>
			<rect x="215.3" y="214.3" class="st29" width="6.7" height="9.2"/>
		</g>
	</g>
	<g id="Shape_28_copy_6_2_">
		<g>
			<rect x="215.3" y="224.7" class="st3" width="6.7" height="9.2"/>
		</g>
	</g>
	<g id="Shape_28_copy_2_2_">
		<g>
			<rect x="223.2" y="203.4" class="st3" width="6.7" height="9.2"/>
		</g>
	</g>
	<g id="Shape_28_copy_7_2_">
		<g>
			<rect x="223.2" y="214.5" class="st28" width="6.7" height="9.2"/>
		</g>
	</g>
	<g id="Shape_28_copy_8_2_">
		<g>
			<rect x="223.2" y="224.7" class="st29" width="6.7" height="9.2"/>
		</g>
	</g>
</g>
<g id="Door_Window_copy_3_1_">
	<g id="Shape_28_3_">
		<g>
			<rect x="261.2" y="203.4" class="st3" width="6.7" height="9.2"/>
		</g>
	</g>
	<g id="Shape_28_copy_9_3_">
		<g>
			<rect x="261.2" y="192.8" class="st3" width="6.7" height="9.2"/>
		</g>
	</g>
	<g id="Shape_28_copy_10_3_">
		<g>
			<rect x="269.3" y="192.8" class="st3" width="6.7" height="9.2"/>
		</g>
	</g>
	<g id="Shape_28_copy_13_3_">
		<g>
			<rect x="277.4" y="192.8" class="st3" width="6.7" height="9.2"/>
		</g>
	</g>
	<g id="Shape_28_copy_3_3_">
		<g>
			<rect x="261.2" y="214.1" class="st3" width="6.7" height="9.2"/>
		</g>
	</g>
	<g id="Shape_28_copy_4_3_">
		<g>
			<rect x="261.2" y="224.7" class="st29" width="6.7" height="9.2"/>
		</g>
	</g>
	<g id="Shape_28_copy_3_">
		<g>
			<rect x="269.3" y="203.4" class="st3" width="6.7" height="9.2"/>
		</g>
	</g>
	<g id="Shape_28_copy_5_3_">
		<g>
			<rect x="269.3" y="214.3" class="st29" width="6.7" height="9.2"/>
		</g>
	</g>
	<g id="Shape_28_copy_6_3_">
		<g>
			<rect x="269.3" y="224.7" class="st3" width="6.7" height="9.2"/>
		</g>
	</g>
	<g id="Shape_28_copy_2_3_">
		<g>
			<rect x="277.2" y="203.4" class="st3" width="6.7" height="9.2"/>
		</g>
	</g>
	<g id="Shape_28_copy_7_3_">
		<g>
			<rect x="277.2" y="214.5" class="st28" width="6.7" height="9.2"/>
		</g>
	</g>
	<g id="Shape_28_copy_8_3_">
		<g>
			<rect x="277.2" y="224.7" class="st29" width="6.7" height="9.2"/>
		</g>
	</g>
</g>
<g id="Shape_36__x2B__Shape_37__x2B__Shape_37_copy_5__x2B__Shape_37_copy_6__x2B__Shape_37_copy_7__x2B__Shape_37_copy_8__x2B__Shape_37_copy__x2B__Shape_37_copy_2__x2B__Shape_37_copy_3__x2B__Shape_37_copy_4__x2B__Shape_38_2_" class="st21">
	<defs>
		<rect id="SVGID_3_" x="174.7" y="166.1" class="st21" width="114.4" height="31.5"/>
	</defs>
	<clipPath id="SVGID_1_">
		<use xlink:href="#SVGID_3_"  style="overflow:visible;"/>
	</clipPath>
	<rect x="174.7" y="165.8" class="st30" width="115.4" height="31.8"/>
	<rect x="174.7" y="165.8" class="st31" width="7.4" height="31.8"/>
	<rect x="188.1" y="166.1" class="st32" width="7.4" height="31.5"/>
	<rect x="201.5" y="165.8" class="st31" width="7.4" height="31.8"/>
	<rect x="214.9" y="166.1" class="st32" width="7.4" height="31.5"/>
	<rect x="228.3" y="165.8" class="st31" width="7.4" height="31.8"/>
	<rect x="241.7" y="166.1" class="st32" width="7.4" height="31.5"/>
	<rect x="255.2" y="165.8" class="st31" width="7.4" height="31.8"/>
	<rect x="282" y="165.8" class="st31" width="7.4" height="31.8"/>
	<rect x="268.6" y="166.1" class="st32" width="7.4" height="31.5"/>
</g>
</svg>
