<?xml version="1.0" encoding="utf-8"?>
<!-- Generator: Adobe Illustrator 19.1.0, SVG Export Plug-In . SVG Version: 6.00 Build 0)  -->
<svg version="1.1" id="Hospital_1_" xmlns="http://www.w3.org/2000/svg" xmlns:xlink="http://www.w3.org/1999/xlink" x="0px"
	 y="0px" viewBox="0 0 342.6 240" style="enable-background:new 0 0 342.6 240;" xml:space="preserve">
<style type="text/css">
	.st0{fill:#6AB3A1;}
	.st1{fill:#498786;}
	.st2{fill:#96DBCA;}
	.st3{fill:#71BFAC;}
	.st4{fill:#DFF2E2;}
	.st5{fill:#FF4F6C;}
	.st6{fill:#FFFFFF;}
</style>
<g id="Shape_5">
	<g>
		<rect x="6.3" y="86.7" class="st0" width="328.7" height="153.3"/>
	</g>
</g>
<g id="Shape_6_copy">
	<g>
		<path class="st1" d="M330.3,84h-318C5.5,84,0,86.8,0,90.3c0,3.5,5.5,6.3,12.3,6.3h318c6.8,0,12.3-2.8,12.3-6.3
			C342.6,86.8,337.1,84,330.3,84z"/>
	</g>
</g>
<g id="Shape_5_copy">
	<g>
		<rect x="93.1" y="13.1" class="st2" width="156.8" height="226.9"/>
	</g>
</g>
<g id="Shape_10">
	<g>
		<rect x="93.1" y="212.3" class="st3" width="156.8" height="27.7"/>
	</g>
</g>
<g id="Shape_11_copy">
	<g>
		<rect x="145.3" y="188.9" class="st1" width="50.3" height="51.1"/>
	</g>
</g>
<g id="Shape_11">
	<g>
		<rect x="150.1" y="193.7" class="st4" width="41.6" height="46.3"/>
	</g>
</g>
<g id="Shape_6">
	<g>
		<path class="st1" d="M253.5,11.9H89.1c-3.5,0-6.3,2.8-6.3,6.3c0,3.5,2.8,6.3,6.3,6.3h164.4c3.5,0,6.3-2.8,6.3-6.3
			C259.8,14.7,257,11.9,253.5,11.9z"/>
	</g>
</g>
<g id="Hospital_Window_Right_1_">
	<g id="Shape_7_copy_4">
		<g>
			<path class="st1" d="M319.2,204.8h-53.9c-2.4,0-4.3,2.1-4.3,4.6v12.1c0,2.6,1.9,4.6,4.3,4.6h53.9c2.4,0,4.3-2.1,4.3-4.6v-12.1
				C323.6,206.8,321.6,204.8,319.2,204.8z"/>
		</g>
	</g>
	<g id="Shape_7_copy_3">
		<g>
			<path class="st4" d="M317.5,206.7H267c-2.2,0-4.1,1.7-4.1,3.8v9.8c0,2.1,1.8,3.8,4.1,3.8h50.5c2.2,0,4.1-1.7,4.1-3.8v-9.8
				C321.6,208.4,319.8,206.7,317.5,206.7z"/>
		</g>
	</g>
	<g id="Shape_7_copy_5">
		<g>
			<path class="st1" d="M319.2,171.9h-53.9c-2.4,0-4.3,2.1-4.3,4.6v12.1c0,2.6,1.9,4.6,4.3,4.6h53.9c2.4,0,4.3-2.1,4.3-4.6v-12.1
				C323.6,174,321.6,171.9,319.2,171.9z"/>
		</g>
	</g>
	<g id="Shape_7_copy_5_1_">
		<g>
			<path class="st4" d="M317.5,173.9H267c-2.2,0-4.1,1.7-4.1,3.8v9.8c0,2.1,1.8,3.8,4.1,3.8h50.5c2.2,0,4.1-1.7,4.1-3.8v-9.8
				C321.6,175.6,319.8,173.9,317.5,173.9z"/>
		</g>
	</g>
	<g id="Shape_7_copy_6">
		<g>
			<path class="st1" d="M319.2,139h-53.9c-2.4,0-4.3,2.1-4.3,4.6v12.1c0,2.6,1.9,4.6,4.3,4.6h53.9c2.4,0,4.3-2.1,4.3-4.6v-12.1
				C323.6,141.1,321.6,139,319.2,139z"/>
		</g>
	</g>
	<g id="Shape_7_copy_6_1_">
		<g>
			<path class="st4" d="M317.5,141H267c-2.2,0-4.1,1.7-4.1,3.8v9.8c0,2.1,1.8,3.8,4.1,3.8h50.5c2.2,0,4.1-1.7,4.1-3.8v-9.8
				C321.6,142.7,319.8,141,317.5,141z"/>
		</g>
	</g>
	<g id="Shape_7_copy_6_2_">
		<g>
			<path class="st1" d="M319.2,106.1h-53.9c-2.4,0-4.3,2.1-4.3,4.6v12.1c0,2.6,1.9,4.6,4.3,4.6h53.9c2.4,0,4.3-2.1,4.3-4.6v-12.1
				C323.6,108.2,321.6,106.1,319.2,106.1z"/>
		</g>
	</g>
	<g id="Shape_7_copy_6_3_">
		<g>
			<path class="st4" d="M317.5,108.1H267c-2.2,0-4.1,1.7-4.1,3.8v9.8c0,2.1,1.8,3.8,4.1,3.8h50.5c2.2,0,4.1-1.7,4.1-3.8v-9.8
				C321.6,109.8,319.8,108.1,317.5,108.1z"/>
		</g>
	</g>
	<g id="Shape_7_copy_7">
		<g>
			<path class="st1" d="M77.2,204.8H23.4c-2.4,0-4.3,2.1-4.3,4.6v12.1c0,2.6,1.9,4.6,4.3,4.6h53.9c2.4,0,4.3-2.1,4.3-4.6v-12.1
				C81.6,206.8,79.6,204.8,77.2,204.8z"/>
		</g>
	</g>
	<g id="Shape_7_copy_7_1_">
		<g>
			<path class="st4" d="M75.5,206.7H25.1c-2.2,0-4.1,1.7-4.1,3.8v9.8c0,2.1,1.8,3.8,4.1,3.8h50.5c2.2,0,4.1-1.7,4.1-3.8v-9.8
				C79.6,208.4,77.8,206.7,75.5,206.7z"/>
		</g>
	</g>
	<g id="Shape_7_copy_7_2_">
		<g>
			<path class="st1" d="M77.2,171.9H23.4c-2.4,0-4.3,2.1-4.3,4.6v12.1c0,2.6,1.9,4.6,4.3,4.6h53.9c2.4,0,4.3-2.1,4.3-4.6v-12.1
				C81.6,174,79.6,171.9,77.2,171.9z"/>
		</g>
	</g>
	<g id="Shape_7_copy_7_3_">
		<g>
			<path class="st4" d="M75.5,173.9H25.1c-2.2,0-4.1,1.7-4.1,3.8v9.8c0,2.1,1.8,3.8,4.1,3.8h50.5c2.2,0,4.1-1.7,4.1-3.8v-9.8
				C79.6,175.6,77.8,173.9,75.5,173.9z"/>
		</g>
	</g>
	<g id="Shape_7_copy_7_4_">
		<g>
			<path class="st1" d="M77.2,139H23.4c-2.4,0-4.3,2.1-4.3,4.6v12.1c0,2.6,1.9,4.6,4.3,4.6h53.9c2.4,0,4.3-2.1,4.3-4.6v-12.1
				C81.6,141.1,79.6,139,77.2,139z"/>
		</g>
	</g>
	<g id="Shape_7_copy_7_5_">
		<g>
			<path class="st4" d="M75.5,141H25.1c-2.2,0-4.1,1.7-4.1,3.8v9.8c0,2.1,1.8,3.8,4.1,3.8h50.5c2.2,0,4.1-1.7,4.1-3.8v-9.8
				C79.6,142.7,77.8,141,75.5,141z"/>
		</g>
	</g>
	<g id="Shape_7_copy_7_6_">
		<g>
			<path class="st1" d="M77.2,106.1H23.4c-2.4,0-4.3,2.1-4.3,4.6v12.1c0,2.6,1.9,4.6,4.3,4.6h53.9c2.4,0,4.3-2.1,4.3-4.6v-12.1
				C81.6,108.2,79.6,106.1,77.2,106.1z"/>
		</g>
	</g>
	<g id="Shape_7_copy_7_7_">
		<g>
			<path class="st4" d="M75.5,108.1H25.1c-2.2,0-4.1,1.7-4.1,3.8v9.8c0,2.1,1.8,3.8,4.1,3.8h50.5c2.2,0,4.1-1.7,4.1-3.8v-9.8
				C79.6,109.8,77.8,108.1,75.5,108.1z"/>
		</g>
	</g>
</g>
<g id="Hospital_Window_Center_1_">
	<g id="Shape_9">
		<g>
			<path class="st1" d="M125,42h-16.8c-2.3,0-4.1,1.8-4.1,3.9v29c0,2.2,1.8,3.9,4.1,3.9H125c2.3,0,4.1-1.8,4.1-3.9v-29
				C129.1,43.7,127.3,42,125,42z"/>
		</g>
	</g>
	<g id="Shape_9_copy">
		<g>
			<path class="st4" d="M123.7,44.4h-13.8c-1.9,0-3.4,1.5-3.4,3.4v24.9c0,1.9,1.5,3.4,3.4,3.4h13.8c1.9,0,3.4-1.5,3.4-3.4V47.7
				C127.1,45.9,125.6,44.4,123.7,44.4z"/>
		</g>
	</g>
</g>
<g id="Hospital_Window_Center_copy_1_">
	<g id="Shape_9_1_">
		<g>
			<path class="st1" d="M125,89.9h-16.8c-2.3,0-4.1,1.8-4.1,3.9v29c0,2.2,1.8,3.9,4.1,3.9H125c2.3,0,4.1-1.8,4.1-3.9v-29
				C129.1,91.7,127.3,89.9,125,89.9z"/>
		</g>
	</g>
	<g id="Shape_9_copy_1_">
		<g>
			<path class="st4" d="M123.7,92.3h-13.8c-1.9,0-3.4,1.5-3.4,3.4v24.9c0,1.9,1.5,3.4,3.4,3.4h13.8c1.9,0,3.4-1.5,3.4-3.4V95.7
				C127.1,93.8,125.6,92.3,123.7,92.3z"/>
		</g>
	</g>
</g>
<g id="Hospital_Window_Center_copy_2_1_">
	<g id="Shape_9_2_">
		<g>
			<path class="st1" d="M125,137.8h-16.8c-2.3,0-4.1,1.8-4.1,3.9v29c0,2.2,1.8,3.9,4.1,3.9H125c2.3,0,4.1-1.8,4.1-3.9v-29
				C129.1,139.6,127.3,137.8,125,137.8z"/>
		</g>
	</g>
	<g id="Shape_9_copy_2_">
		<g>
			<path class="st4" d="M123.7,140.2h-13.8c-1.9,0-3.4,1.5-3.4,3.4v24.9c0,1.9,1.5,3.4,3.4,3.4h13.8c1.9,0,3.4-1.5,3.4-3.4v-24.9
				C127.1,141.7,125.6,140.2,123.7,140.2z"/>
		</g>
	</g>
</g>
<g id="Hospital_Window_Center_copy_3_5_">
	<g id="Shape_9_3_">
		<g>
			<path class="st1" d="M161.1,42h-16.8c-2.3,0-4.1,1.8-4.1,3.9v29c0,2.2,1.8,3.9,4.1,3.9h16.8c2.3,0,4.1-1.8,4.1-3.9v-29
				C165.2,43.7,163.3,42,161.1,42z"/>
		</g>
	</g>
	<g id="Shape_9_copy_3_">
		<g>
			<path class="st4" d="M159.8,44.4h-13.8c-1.9,0-3.4,1.5-3.4,3.4v24.9c0,1.9,1.5,3.4,3.4,3.4h13.8c1.9,0,3.4-1.5,3.4-3.4V47.7
				C163.1,45.9,161.6,44.4,159.8,44.4z"/>
		</g>
	</g>
</g>
<g id="Hospital_Window_Center_copy_3_4_">
	<g id="Shape_9_4_">
		<g>
			<path class="st1" d="M161.1,89.9h-16.8c-2.3,0-4.1,1.8-4.1,3.9v29c0,2.2,1.8,3.9,4.1,3.9h16.8c2.3,0,4.1-1.8,4.1-3.9v-29
				C165.2,91.7,163.3,89.9,161.1,89.9z"/>
		</g>
	</g>
	<g id="Shape_9_copy_4_">
		<g>
			<path class="st4" d="M159.8,92.3h-13.8c-1.9,0-3.4,1.5-3.4,3.4v24.9c0,1.9,1.5,3.4,3.4,3.4h13.8c1.9,0,3.4-1.5,3.4-3.4V95.7
				C163.1,93.8,161.6,92.3,159.8,92.3z"/>
		</g>
	</g>
</g>
<g id="Hospital_Window_Center_copy_3_3_">
	<g id="Shape_9_5_">
		<g>
			<path class="st1" d="M161.1,137.8h-16.8c-2.3,0-4.1,1.8-4.1,3.9v29c0,2.2,1.8,3.9,4.1,3.9h16.8c2.3,0,4.1-1.8,4.1-3.9v-29
				C165.2,139.6,163.3,137.8,161.1,137.8z"/>
		</g>
	</g>
	<g id="Shape_9_copy_5_">
		<g>
			<path class="st4" d="M159.8,140.2h-13.8c-1.9,0-3.4,1.5-3.4,3.4v24.9c0,1.9,1.5,3.4,3.4,3.4h13.8c1.9,0,3.4-1.5,3.4-3.4v-24.9
				C163.1,141.7,161.6,140.2,159.8,140.2z"/>
		</g>
	</g>
</g>
<g id="Hospital_Window_Center_copy_4_5_">
	<g id="Shape_9_6_">
		<g>
			<path class="st1" d="M197.1,42h-16.8c-2.3,0-4.1,1.8-4.1,3.9v29c0,2.2,1.8,3.9,4.1,3.9h16.8c2.3,0,4.1-1.8,4.1-3.9v-29
				C201.2,43.7,199.4,42,197.1,42z"/>
		</g>
	</g>
	<g id="Shape_9_copy_6_">
		<g>
			<path class="st4" d="M195.8,44.4H182c-1.9,0-3.4,1.5-3.4,3.4v24.9c0,1.9,1.5,3.4,3.4,3.4h13.8c1.9,0,3.4-1.5,3.4-3.4V47.7
				C199.2,45.9,197.7,44.4,195.8,44.4z"/>
		</g>
	</g>
</g>
<g id="Hospital_Window_Center_copy_4_4_">
	<g id="Shape_9_7_">
		<g>
			<path class="st1" d="M197.1,89.9h-16.8c-2.3,0-4.1,1.8-4.1,3.9v29c0,2.2,1.8,3.9,4.1,3.9h16.8c2.3,0,4.1-1.8,4.1-3.9v-29
				C201.2,91.7,199.4,89.9,197.1,89.9z"/>
		</g>
	</g>
	<g id="Shape_9_copy_7_">
		<g>
			<path class="st4" d="M195.8,92.3H182c-1.9,0-3.4,1.5-3.4,3.4v24.9c0,1.9,1.5,3.4,3.4,3.4h13.8c1.9,0,3.4-1.5,3.4-3.4V95.7
				C199.2,93.8,197.7,92.3,195.8,92.3z"/>
		</g>
	</g>
</g>
<g id="Hospital_Window_Center_copy_4_3_">
	<g id="Shape_9_8_">
		<g>
			<path class="st1" d="M197.1,137.8h-16.8c-2.3,0-4.1,1.8-4.1,3.9v29c0,2.2,1.8,3.9,4.1,3.9h16.8c2.3,0,4.1-1.8,4.1-3.9v-29
				C201.2,139.6,199.4,137.8,197.1,137.8z"/>
		</g>
	</g>
	<g id="Shape_9_copy_8_">
		<g>
			<path class="st4" d="M195.8,140.2H182c-1.9,0-3.4,1.5-3.4,3.4v24.9c0,1.9,1.5,3.4,3.4,3.4h13.8c1.9,0,3.4-1.5,3.4-3.4v-24.9
				C199.2,141.7,197.7,140.2,195.8,140.2z"/>
		</g>
	</g>
</g>
<g id="Hospital_Window_Center_copy_5_5_">
	<g id="Shape_9_9_">
		<g>
			<path class="st1" d="M233.1,42h-16.8c-2.3,0-4.1,1.8-4.1,3.9v29c0,2.2,1.8,3.9,4.1,3.9h16.8c2.3,0,4.1-1.8,4.1-3.9v-29
				C237.2,43.7,235.4,42,233.1,42z"/>
		</g>
	</g>
	<g id="Shape_9_copy_9_">
		<g>
			<path class="st4" d="M231.8,44.4H218c-1.9,0-3.4,1.5-3.4,3.4v24.9c0,1.9,1.5,3.4,3.4,3.4h13.8c1.9,0,3.4-1.5,3.4-3.4V47.7
				C235.2,45.9,233.7,44.4,231.8,44.4z"/>
		</g>
	</g>
</g>
<g id="Hospital_Window_Center_copy_5_4_">
	<g id="Shape_9_10_">
		<g>
			<path class="st1" d="M233.1,89.9h-16.8c-2.3,0-4.1,1.8-4.1,3.9v29c0,2.2,1.8,3.9,4.1,3.9h16.8c2.3,0,4.1-1.8,4.1-3.9v-29
				C237.2,91.7,235.4,89.9,233.1,89.9z"/>
		</g>
	</g>
	<g id="Shape_9_copy_10_">
		<g>
			<path class="st4" d="M231.8,92.3H218c-1.9,0-3.4,1.5-3.4,3.4v24.9c0,1.9,1.5,3.4,3.4,3.4h13.8c1.9,0,3.4-1.5,3.4-3.4V95.7
				C235.2,93.8,233.7,92.3,231.8,92.3z"/>
		</g>
	</g>
</g>
<g id="Hospital_Window_Center_copy_5_3_">
	<g id="Shape_9_11_">
		<g>
			<path class="st1" d="M233.1,137.8h-16.8c-2.3,0-4.1,1.8-4.1,3.9v29c0,2.2,1.8,3.9,4.1,3.9h16.8c2.3,0,4.1-1.8,4.1-3.9v-29
				C237.2,139.6,235.4,137.8,233.1,137.8z"/>
		</g>
	</g>
	<g id="Shape_9_copy_11_">
		<g>
			<path class="st4" d="M231.8,140.2H218c-1.9,0-3.4,1.5-3.4,3.4v24.9c0,1.9,1.5,3.4,3.4,3.4h13.8c1.9,0,3.4-1.5,3.4-3.4v-24.9
				C235.2,141.7,233.7,140.2,231.8,140.2z"/>
		</g>
	</g>
</g>
<g id="Hospital_Signage_1_">
	<g id="Shape_12">
		<g>
			<circle class="st5" cx="171.5" cy="17.4" r="17.4"/>
		</g>
	</g>
	<g id="Cross">
		<g>
			<rect x="168.7" y="6.1" class="st6" width="5" height="22.6"/>
		</g>
	</g>
	<g id="Cross_1_">
		<g>
			<rect x="159.9" y="15" class="st6" width="22.6" height="5"/>
		</g>
	</g>
</g>
</svg>
