<?xml version="1.0" encoding="utf-8"?>
<!-- Generator: Adobe Illustrator 19.1.0, SVG Export Plug-In . SVG Version: 6.00 Build 0)  -->
<svg version="1.1" id="Light_Grey_Building_copy_1_"
	 xmlns="http://www.w3.org/2000/svg" xmlns:xlink="http://www.w3.org/1999/xlink" x="0px" y="0px" viewBox="0 0 119.6 350"
	 style="enable-background:new 0 0 119.6 350;" xml:space="preserve">
<style type="text/css">
	.st0{fill:#A1B7C2;}
	.st1{fill:#81939C;}
	.st2{fill:#CADBE3;}
</style>
<g id="Base_Building_1_">
	<g id="Shape_47">
		<g>
			<rect x="36.7" y="65.7" class="st0" width="46.9" height="31.3"/>
		</g>
	</g>
	<g id="Shape_47_copy_2">
		<g>
			<rect x="16.2" y="96.9" class="st0" width="88.4" height="40.9"/>
		</g>
	</g>
	<g id="Shape_47_copy">
		<g>
			<rect x="3.6" y="137.8" class="st0" width="114.2" height="212.2"/>
		</g>
	</g>
</g>
<g id="Decor_1_1_">
	<g id="Shape_50">
		<g>
			<path class="st1" d="M43.3,68.4h-0.9c-0.8,0-1.5,0.7-1.5,1.5v18.6c0,0.8,0.7,1.5,1.5,1.5h0.9c0.8,0,1.5-0.7,1.5-1.5V69.9
				C44.8,69,44.1,68.4,43.3,68.4z"/>
		</g>
	</g>
	<g id="Shape_50_copy">
		<g>
			<path class="st1" d="M52.3,68.4h-0.9c-0.8,0-1.5,0.7-1.5,1.5v18.6c0,0.8,0.7,1.5,1.5,1.5h0.9c0.8,0,1.5-0.7,1.5-1.5V69.9
				C53.8,69,53.1,68.4,52.3,68.4z"/>
		</g>
	</g>
	<g id="Shape_50_copy_2">
		<g>
			<path class="st1" d="M61.3,68.4h-0.9c-0.8,0-1.5,0.7-1.5,1.5v18.6c0,0.8,0.7,1.5,1.5,1.5h0.9c0.8,0,1.5-0.7,1.5-1.5V69.9
				C62.8,69,62.1,68.4,61.3,68.4z"/>
		</g>
	</g>
	<g id="Shape_50_copy_3">
		<g>
			<path class="st1" d="M70,68.4h-0.9c-0.8,0-1.5,0.7-1.5,1.5v18.6c0,0.8,0.7,1.5,1.5,1.5H70c0.8,0,1.5-0.7,1.5-1.5V69.9
				C71.5,69,70.9,68.4,70,68.4z"/>
		</g>
	</g>
	<g id="Shape_50_copy_4">
		<g>
			<path class="st1" d="M79,68.4h-0.9c-0.8,0-1.5,0.7-1.5,1.5v18.6c0,0.8,0.7,1.5,1.5,1.5H79c0.8,0,1.5-0.7,1.5-1.5V69.9
				C80.5,69,79.9,68.4,79,68.4z"/>
		</g>
	</g>
</g>
<g id="Decor_2_1_">
	<g id="Shape_51">
		<g>
			<path class="st2" d="M31.6,104.7h-6.6c-0.8,0-1.5,0.7-1.5,1.5v24.9c0,0.8,0.7,1.5,1.5,1.5h6.6c0.8,0,1.5-0.7,1.5-1.5v-24.9
				C33.1,105.4,32.4,104.7,31.6,104.7z"/>
		</g>
	</g>
	<g id="Shape_51_copy">
		<g>
			<path class="st2" d="M44.2,104.7h-6.6c-0.8,0-1.5,0.7-1.5,1.5v24.9c0,0.8,0.7,1.5,1.5,1.5h6.6c0.8,0,1.5-0.7,1.5-1.5v-24.9
				C45.7,105.4,45,104.7,44.2,104.7z"/>
		</g>
	</g>
	<g id="Shape_51_copy_2">
		<g>
			<path class="st2" d="M57.1,104.7h-6.6c-0.8,0-1.5,0.7-1.5,1.5v24.9c0,0.8,0.7,1.5,1.5,1.5h6.6c0.8,0,1.5-0.7,1.5-1.5v-24.9
				C58.6,105.4,57.9,104.7,57.1,104.7z"/>
		</g>
	</g>
	<g id="Shape_51_copy_3">
		<g>
			<path class="st2" d="M69.7,104.7h-6.6c-0.8,0-1.5,0.7-1.5,1.5v24.9c0,0.8,0.7,1.5,1.5,1.5h6.6c0.8,0,1.5-0.7,1.5-1.5v-24.9
				C71.2,105.4,70.6,104.7,69.7,104.7z"/>
		</g>
	</g>
	<g id="Shape_51_copy_4">
		<g>
			<path class="st2" d="M82.7,104.7H76c-0.8,0-1.5,0.7-1.5,1.5v24.9c0,0.8,0.7,1.5,1.5,1.5h6.6c0.8,0,1.5-0.7,1.5-1.5v-24.9
				C84.2,105.4,83.5,104.7,82.7,104.7z"/>
		</g>
	</g>
	<g id="Shape_51_copy_5">
		<g>
			<path class="st2" d="M95.3,104.7h-6.6c-0.8,0-1.5,0.7-1.5,1.5v24.9c0,0.8,0.7,1.5,1.5,1.5h6.6c0.8,0,1.5-0.7,1.5-1.5v-24.9
				C96.8,105.4,96.1,104.7,95.3,104.7z"/>
		</g>
	</g>
</g>
<g id="Shape_48">
	<g>
		<path class="st1" d="M118.1,132.4H1.5c-0.8,0-1.5,0.7-1.5,1.5v5.4c0,0.8,0.7,1.5,1.5,1.5h116.6c0.8,0,1.5-0.7,1.5-1.5v-5.4
			C119.6,133.1,118.9,132.4,118.1,132.4z"/>
	</g>
</g>
<g id="Shape_48_copy">
	<g>
		<path class="st1" d="M108,92.1H12.5c-0.7,0-1.2,0.7-1.2,1.5V99c0,0.8,0.6,1.5,1.2,1.5H108c0.7,0,1.2-0.7,1.2-1.5v-5.4
			C109.3,92.8,108.7,92.1,108,92.1z"/>
	</g>
</g>
<g id="Shape_49">
	<g>
		<path class="st1" d="M60,0c-0.7,0-1.4,0.6-1.4,1.4v52.3c0,0.7,0.6,1.4,1.4,1.4c0.7,0,1.4-0.6,1.4-1.4V1.4C61.3,0.6,60.7,0,60,0z"
			/>
	</g>
</g>
<g id="Shape_48_copy_3">
	<g>
		<path class="st0" d="M73.3,54.3H46.8c-0.2,0-0.3,1.2-0.3,2.8v10c0,1.5,0.2,2.8,0.3,2.8h26.5c0.2,0,0.3-1.2,0.3-2.8V57
			C73.6,55.5,73.5,54.3,73.3,54.3z"/>
	</g>
</g>
<g id="Shape_48_copy_2">
	<g>
		<path class="st1" d="M84.3,61.5H35.3c-0.3,0-0.6,0.7-0.6,1.5v5.4c0,0.8,0.3,1.5,0.6,1.5h48.9c0.3,0,0.6-0.7,0.6-1.5V63
			C84.9,62.1,84.6,61.5,84.3,61.5z"/>
	</g>
</g>
<g id="Light_Grey_1_">
	<g id="Light_Grey_Building_Window_1_">
		<g id="Shape_52">
			<g>
				<path class="st2" d="M28.9,145.6H17.7c-0.8,0-1.5,0.7-1.5,1.5v9.6c0,0.8,0.7,1.5,1.5,1.5h11.1c0.8,0,1.5-0.7,1.5-1.5v-9.6
					C30.4,146.3,29.7,145.6,28.9,145.6z"/>
			</g>
		</g>
		<g id="Shape_52_copy">
			<g>
				<path class="st2" d="M47.2,145.6H36.1c-0.8,0-1.5,0.7-1.5,1.5v9.6c0,0.8,0.7,1.5,1.5,1.5h11.1c0.8,0,1.5-0.7,1.5-1.5v-9.6
					C48.7,146.3,48,145.6,47.2,145.6z"/>
			</g>
		</g>
		<g id="Shape_52_copy_2">
			<g>
				<path class="st2" d="M65.5,145.6H54.4c-0.8,0-1.5,0.7-1.5,1.5v9.6c0,0.8,0.7,1.5,1.5,1.5h11.1c0.8,0,1.5-0.7,1.5-1.5v-9.6
					C67,146.3,66.4,145.6,65.5,145.6z"/>
			</g>
		</g>
		<g id="Shape_52_copy_3">
			<g>
				<path class="st2" d="M83.6,145.6H72.4c-0.8,0-1.5,0.7-1.5,1.5v9.6c0,0.8,0.7,1.5,1.5,1.5h11.1c0.8,0,1.5-0.7,1.5-1.5v-9.6
					C85.1,146.3,84.4,145.6,83.6,145.6z"/>
			</g>
		</g>
		<g id="Shape_52_copy_4">
			<g>
				<path class="st2" d="M101.9,145.6H90.8c-0.8,0-1.5,0.7-1.5,1.5v9.6c0,0.8,0.7,1.5,1.5,1.5h11.1c0.8,0,1.5-0.7,1.5-1.5v-9.6
					C103.4,146.3,102.7,145.6,101.9,145.6z"/>
			</g>
		</g>
	</g>
	<g id="Light_Grey_Building_Window_copy_1_">
		<g id="Shape_52_1_">
			<g>
				<path class="st2" d="M28.9,163.4H17.7c-0.8,0-1.5,0.7-1.5,1.5v9.6c0,0.8,0.7,1.5,1.5,1.5h11.1c0.8,0,1.5-0.7,1.5-1.5v-9.6
					C30.4,164,29.7,163.4,28.9,163.4z"/>
			</g>
		</g>
		<g id="Shape_52_copy_1_">
			<g>
				<path class="st2" d="M47.2,163.4H36.1c-0.8,0-1.5,0.7-1.5,1.5v9.6c0,0.8,0.7,1.5,1.5,1.5h11.1c0.8,0,1.5-0.7,1.5-1.5v-9.6
					C48.7,164,48,163.4,47.2,163.4z"/>
			</g>
		</g>
		<g id="Shape_52_copy_2_1_">
			<g>
				<path class="st2" d="M65.5,163.4H54.4c-0.8,0-1.5,0.7-1.5,1.5v9.6c0,0.8,0.7,1.5,1.5,1.5h11.1c0.8,0,1.5-0.7,1.5-1.5v-9.6
					C67,164,66.4,163.4,65.5,163.4z"/>
			</g>
		</g>
		<g id="Shape_52_copy_3_1_">
			<g>
				<path class="st2" d="M83.6,163.4H72.4c-0.8,0-1.5,0.7-1.5,1.5v9.6c0,0.8,0.7,1.5,1.5,1.5h11.1c0.8,0,1.5-0.7,1.5-1.5v-9.6
					C85.1,164,84.4,163.4,83.6,163.4z"/>
			</g>
		</g>
		<g id="Shape_52_copy_4_1_">
			<g>
				<path class="st2" d="M101.9,163.4H90.8c-0.8,0-1.5,0.7-1.5,1.5v9.6c0,0.8,0.7,1.5,1.5,1.5h11.1c0.8,0,1.5-0.7,1.5-1.5v-9.6
					C103.4,164,102.7,163.4,101.9,163.4z"/>
			</g>
		</g>
	</g>
	<g id="Light_Grey_Building_Window_copy_2_1_">
		<g id="Shape_52_2_">
			<g>
				<path class="st2" d="M28.9,181.1H17.7c-0.8,0-1.5,0.7-1.5,1.5v9.6c0,0.8,0.7,1.5,1.5,1.5h11.1c0.8,0,1.5-0.7,1.5-1.5v-9.6
					C30.4,181.8,29.7,181.1,28.9,181.1z"/>
			</g>
		</g>
		<g id="Shape_52_copy_2_">
			<g>
				<path class="st2" d="M47.2,181.1H36.1c-0.8,0-1.5,0.7-1.5,1.5v9.6c0,0.8,0.7,1.5,1.5,1.5h11.1c0.8,0,1.5-0.7,1.5-1.5v-9.6
					C48.7,181.8,48,181.1,47.2,181.1z"/>
			</g>
		</g>
		<g id="Shape_52_copy_2_2_">
			<g>
				<path class="st2" d="M65.5,181.1H54.4c-0.8,0-1.5,0.7-1.5,1.5v9.6c0,0.8,0.7,1.5,1.5,1.5h11.1c0.8,0,1.5-0.7,1.5-1.5v-9.6
					C67,181.8,66.4,181.1,65.5,181.1z"/>
			</g>
		</g>
		<g id="Shape_52_copy_3_2_">
			<g>
				<path class="st2" d="M83.6,181.1H72.4c-0.8,0-1.5,0.7-1.5,1.5v9.6c0,0.8,0.7,1.5,1.5,1.5h11.1c0.8,0,1.5-0.7,1.5-1.5v-9.6
					C85.1,181.8,84.4,181.1,83.6,181.1z"/>
			</g>
		</g>
		<g id="Shape_52_copy_4_2_">
			<g>
				<path class="st2" d="M101.9,181.1H90.8c-0.8,0-1.5,0.7-1.5,1.5v9.6c0,0.8,0.7,1.5,1.5,1.5h11.1c0.8,0,1.5-0.7,1.5-1.5v-9.6
					C103.4,181.8,102.7,181.1,101.9,181.1z"/>
			</g>
		</g>
	</g>
	<g id="Light_Grey_Building_Window_copy_3_1_">
		<g id="Shape_52_3_">
			<g>
				<path class="st2" d="M28.9,198.5H17.7c-0.8,0-1.5,0.7-1.5,1.5v9.6c0,0.8,0.7,1.5,1.5,1.5h11.1c0.8,0,1.5-0.7,1.5-1.5V200
					C30.4,199.2,29.7,198.5,28.9,198.5z"/>
			</g>
		</g>
		<g id="Shape_52_copy_3_">
			<g>
				<path class="st2" d="M47.2,198.5H36.1c-0.8,0-1.5,0.7-1.5,1.5v9.6c0,0.8,0.7,1.5,1.5,1.5h11.1c0.8,0,1.5-0.7,1.5-1.5V200
					C48.7,199.2,48,198.5,47.2,198.5z"/>
			</g>
		</g>
		<g id="Shape_52_copy_2_3_">
			<g>
				<path class="st2" d="M65.5,198.5H54.4c-0.8,0-1.5,0.7-1.5,1.5v9.6c0,0.8,0.7,1.5,1.5,1.5h11.1c0.8,0,1.5-0.7,1.5-1.5V200
					C67,199.2,66.4,198.5,65.5,198.5z"/>
			</g>
		</g>
		<g id="Shape_52_copy_3_3_">
			<g>
				<path class="st2" d="M83.6,198.5H72.4c-0.8,0-1.5,0.7-1.5,1.5v9.6c0,0.8,0.7,1.5,1.5,1.5h11.1c0.8,0,1.5-0.7,1.5-1.5V200
					C85.1,199.2,84.4,198.5,83.6,198.5z"/>
			</g>
		</g>
		<g id="Shape_52_copy_4_3_">
			<g>
				<path class="st2" d="M101.9,198.5H90.8c-0.8,0-1.5,0.7-1.5,1.5v9.6c0,0.8,0.7,1.5,1.5,1.5h11.1c0.8,0,1.5-0.7,1.5-1.5V200
					C103.4,199.2,102.7,198.5,101.9,198.5z"/>
			</g>
		</g>
	</g>
	<g id="Light_Grey_Building_Window_copy_4_1_">
		<g id="Shape_52_4_">
			<g>
				<path class="st2" d="M28.9,216.3H17.7c-0.8,0-1.5,0.7-1.5,1.5v9.6c0,0.8,0.7,1.5,1.5,1.5h11.1c0.8,0,1.5-0.7,1.5-1.5v-9.6
					C30.4,216.9,29.7,216.3,28.9,216.3z"/>
			</g>
		</g>
		<g id="Shape_52_copy_4_">
			<g>
				<path class="st2" d="M47.2,216.3H36.1c-0.8,0-1.5,0.7-1.5,1.5v9.6c0,0.8,0.7,1.5,1.5,1.5h11.1c0.8,0,1.5-0.7,1.5-1.5v-9.6
					C48.7,216.9,48,216.3,47.2,216.3z"/>
			</g>
		</g>
		<g id="Shape_52_copy_2_4_">
			<g>
				<path class="st2" d="M65.5,216.3H54.4c-0.8,0-1.5,0.7-1.5,1.5v9.6c0,0.8,0.7,1.5,1.5,1.5h11.1c0.8,0,1.5-0.7,1.5-1.5v-9.6
					C67,216.9,66.4,216.3,65.5,216.3z"/>
			</g>
		</g>
		<g id="Shape_52_copy_3_4_">
			<g>
				<path class="st2" d="M83.6,216.3H72.4c-0.8,0-1.5,0.7-1.5,1.5v9.6c0,0.8,0.7,1.5,1.5,1.5h11.1c0.8,0,1.5-0.7,1.5-1.5v-9.6
					C85.1,216.9,84.4,216.3,83.6,216.3z"/>
			</g>
		</g>
		<g id="Shape_52_copy_4_4_">
			<g>
				<path class="st2" d="M101.9,216.3H90.8c-0.8,0-1.5,0.7-1.5,1.5v9.6c0,0.8,0.7,1.5,1.5,1.5h11.1c0.8,0,1.5-0.7,1.5-1.5v-9.6
					C103.4,216.9,102.7,216.3,101.9,216.3z"/>
			</g>
		</g>
	</g>
	<g id="Light_Grey_Building_Window_copy_5_1_">
		<g id="Shape_52_5_">
			<g>
				<path class="st2" d="M28.9,234H17.7c-0.8,0-1.5,0.7-1.5,1.5v9.6c0,0.8,0.7,1.5,1.5,1.5h11.1c0.8,0,1.5-0.7,1.5-1.5v-9.6
					C30.4,234.7,29.7,234,28.9,234z"/>
			</g>
		</g>
		<g id="Shape_52_copy_5_">
			<g>
				<path class="st2" d="M47.2,234H36.1c-0.8,0-1.5,0.7-1.5,1.5v9.6c0,0.8,0.7,1.5,1.5,1.5h11.1c0.8,0,1.5-0.7,1.5-1.5v-9.6
					C48.7,234.7,48,234,47.2,234z"/>
			</g>
		</g>
		<g id="Shape_52_copy_2_5_">
			<g>
				<path class="st2" d="M65.5,234H54.4c-0.8,0-1.5,0.7-1.5,1.5v9.6c0,0.8,0.7,1.5,1.5,1.5h11.1c0.8,0,1.5-0.7,1.5-1.5v-9.6
					C67,234.7,66.4,234,65.5,234z"/>
			</g>
		</g>
		<g id="Shape_52_copy_3_5_">
			<g>
				<path class="st2" d="M83.6,234H72.4c-0.8,0-1.5,0.7-1.5,1.5v9.6c0,0.8,0.7,1.5,1.5,1.5h11.1c0.8,0,1.5-0.7,1.5-1.5v-9.6
					C85.1,234.7,84.4,234,83.6,234z"/>
			</g>
		</g>
		<g id="Shape_52_copy_4_5_">
			<g>
				<path class="st2" d="M101.9,234H90.8c-0.8,0-1.5,0.7-1.5,1.5v9.6c0,0.8,0.7,1.5,1.5,1.5h11.1c0.8,0,1.5-0.7,1.5-1.5v-9.6
					C103.4,234.7,102.7,234,101.9,234z"/>
			</g>
		</g>
	</g>
	<g id="Light_Grey_Building_Window_copy_6_1_">
		<g id="Shape_52_6_">
			<g>
				<path class="st2" d="M28.9,251.7H17.7c-0.8,0-1.5,0.7-1.5,1.5v9.6c0,0.8,0.7,1.5,1.5,1.5h11.1c0.8,0,1.5-0.7,1.5-1.5v-9.6
					C30.4,252.4,29.7,251.7,28.9,251.7z"/>
			</g>
		</g>
		<g id="Shape_52_copy_6_">
			<g>
				<path class="st2" d="M47.2,251.7H36.1c-0.8,0-1.5,0.7-1.5,1.5v9.6c0,0.8,0.7,1.5,1.5,1.5h11.1c0.8,0,1.5-0.7,1.5-1.5v-9.6
					C48.7,252.4,48,251.7,47.2,251.7z"/>
			</g>
		</g>
		<g id="Shape_52_copy_2_6_">
			<g>
				<path class="st2" d="M65.5,251.7H54.4c-0.8,0-1.5,0.7-1.5,1.5v9.6c0,0.8,0.7,1.5,1.5,1.5h11.1c0.8,0,1.5-0.7,1.5-1.5v-9.6
					C67,252.4,66.4,251.7,65.5,251.7z"/>
			</g>
		</g>
		<g id="Shape_52_copy_3_6_">
			<g>
				<path class="st2" d="M83.6,251.7H72.4c-0.8,0-1.5,0.7-1.5,1.5v9.6c0,0.8,0.7,1.5,1.5,1.5h11.1c0.8,0,1.5-0.7,1.5-1.5v-9.6
					C85.1,252.4,84.4,251.7,83.6,251.7z"/>
			</g>
		</g>
		<g id="Shape_52_copy_4_6_">
			<g>
				<path class="st2" d="M101.9,251.7H90.8c-0.8,0-1.5,0.7-1.5,1.5v9.6c0,0.8,0.7,1.5,1.5,1.5h11.1c0.8,0,1.5-0.7,1.5-1.5v-9.6
					C103.4,252.4,102.7,251.7,101.9,251.7z"/>
			</g>
		</g>
	</g>
	<g id="Light_Grey_Building_Window_copy_7_1_">
		<g id="Shape_52_7_">
			<g>
				<path class="st2" d="M28.9,269.5H17.7c-0.8,0-1.5,0.7-1.5,1.5v9.6c0,0.8,0.7,1.5,1.5,1.5h11.1c0.8,0,1.5-0.7,1.5-1.5V271
					C30.4,270.1,29.7,269.5,28.9,269.5z"/>
			</g>
		</g>
		<g id="Shape_52_copy_7_">
			<g>
				<path class="st2" d="M47.2,269.5H36.1c-0.8,0-1.5,0.7-1.5,1.5v9.6c0,0.8,0.7,1.5,1.5,1.5h11.1c0.8,0,1.5-0.7,1.5-1.5V271
					C48.7,270.1,48,269.5,47.2,269.5z"/>
			</g>
		</g>
		<g id="Shape_52_copy_2_7_">
			<g>
				<path class="st2" d="M65.5,269.5H54.4c-0.8,0-1.5,0.7-1.5,1.5v9.6c0,0.8,0.7,1.5,1.5,1.5h11.1c0.8,0,1.5-0.7,1.5-1.5V271
					C67,270.1,66.4,269.5,65.5,269.5z"/>
			</g>
		</g>
		<g id="Shape_52_copy_3_7_">
			<g>
				<path class="st2" d="M83.6,269.5H72.4c-0.8,0-1.5,0.7-1.5,1.5v9.6c0,0.8,0.7,1.5,1.5,1.5h11.1c0.8,0,1.5-0.7,1.5-1.5V271
					C85.1,270.1,84.4,269.5,83.6,269.5z"/>
			</g>
		</g>
		<g id="Shape_52_copy_4_7_">
			<g>
				<path class="st2" d="M101.9,269.5H90.8c-0.8,0-1.5,0.7-1.5,1.5v9.6c0,0.8,0.7,1.5,1.5,1.5h11.1c0.8,0,1.5-0.7,1.5-1.5V271
					C103.4,270.1,102.7,269.5,101.9,269.5z"/>
			</g>
		</g>
	</g>
	<g id="Light_Grey_Building_Window_copy_8_1_">
		<g id="Shape_52_8_">
			<g>
				<path class="st2" d="M28.9,286.9H17.7c-0.8,0-1.5,0.7-1.5,1.5v9.6c0,0.8,0.7,1.5,1.5,1.5h11.1c0.8,0,1.5-0.7,1.5-1.5v-9.6
					C30.4,287.6,29.7,286.9,28.9,286.9z"/>
			</g>
		</g>
		<g id="Shape_52_copy_8_">
			<g>
				<path class="st2" d="M47.2,286.9H36.1c-0.8,0-1.5,0.7-1.5,1.5v9.6c0,0.8,0.7,1.5,1.5,1.5h11.1c0.8,0,1.5-0.7,1.5-1.5v-9.6
					C48.7,287.6,48,286.9,47.2,286.9z"/>
			</g>
		</g>
		<g id="Shape_52_copy_2_8_">
			<g>
				<path class="st2" d="M65.5,286.9H54.4c-0.8,0-1.5,0.7-1.5,1.5v9.6c0,0.8,0.7,1.5,1.5,1.5h11.1c0.8,0,1.5-0.7,1.5-1.5v-9.6
					C67,287.6,66.4,286.9,65.5,286.9z"/>
			</g>
		</g>
		<g id="Shape_52_copy_3_8_">
			<g>
				<path class="st2" d="M83.6,286.9H72.4c-0.8,0-1.5,0.7-1.5,1.5v9.6c0,0.8,0.7,1.5,1.5,1.5h11.1c0.8,0,1.5-0.7,1.5-1.5v-9.6
					C85.1,287.6,84.4,286.9,83.6,286.9z"/>
			</g>
		</g>
		<g id="Shape_52_copy_4_8_">
			<g>
				<path class="st2" d="M101.9,286.9H90.8c-0.8,0-1.5,0.7-1.5,1.5v9.6c0,0.8,0.7,1.5,1.5,1.5h11.1c0.8,0,1.5-0.7,1.5-1.5v-9.6
					C103.4,287.6,102.7,286.9,101.9,286.9z"/>
			</g>
		</g>
	</g>
	<g id="Light_Grey_Building_Window_copy_9_1_">
		<g id="Shape_52_9_">
			<g>
				<path class="st2" d="M28.9,304.6H17.7c-0.8,0-1.5,0.7-1.5,1.5v9.6c0,0.8,0.7,1.5,1.5,1.5h11.1c0.8,0,1.5-0.7,1.5-1.5v-9.6
					C30.4,305.3,29.7,304.6,28.9,304.6z"/>
			</g>
		</g>
		<g id="Shape_52_copy_9_">
			<g>
				<path class="st2" d="M47.2,304.6H36.1c-0.8,0-1.5,0.7-1.5,1.5v9.6c0,0.8,0.7,1.5,1.5,1.5h11.1c0.8,0,1.5-0.7,1.5-1.5v-9.6
					C48.7,305.3,48,304.6,47.2,304.6z"/>
			</g>
		</g>
		<g id="Shape_52_copy_2_9_">
			<g>
				<path class="st2" d="M65.5,304.6H54.4c-0.8,0-1.5,0.7-1.5,1.5v9.6c0,0.8,0.7,1.5,1.5,1.5h11.1c0.8,0,1.5-0.7,1.5-1.5v-9.6
					C67,305.3,66.4,304.6,65.5,304.6z"/>
			</g>
		</g>
		<g id="Shape_52_copy_3_9_">
			<g>
				<path class="st2" d="M83.6,304.6H72.4c-0.8,0-1.5,0.7-1.5,1.5v9.6c0,0.8,0.7,1.5,1.5,1.5h11.1c0.8,0,1.5-0.7,1.5-1.5v-9.6
					C85.1,305.3,84.4,304.6,83.6,304.6z"/>
			</g>
		</g>
		<g id="Shape_52_copy_4_9_">
			<g>
				<path class="st2" d="M101.9,304.6H90.8c-0.8,0-1.5,0.7-1.5,1.5v9.6c0,0.8,0.7,1.5,1.5,1.5h11.1c0.8,0,1.5-0.7,1.5-1.5v-9.6
					C103.4,305.3,102.7,304.6,101.9,304.6z"/>
			</g>
		</g>
	</g>
	<g id="Light_Grey_Building_Window_copy_10_1_">
		<g id="Shape_52_10_">
			<g>
				<path class="st2" d="M28.9,322.3H17.7c-0.8,0-1.5,0.7-1.5,1.5v9.6c0,0.8,0.7,1.5,1.5,1.5h11.1c0.8,0,1.5-0.7,1.5-1.5v-9.6
					C30.4,323,29.7,322.3,28.9,322.3z"/>
			</g>
		</g>
		<g id="Shape_52_copy_10_">
			<g>
				<path class="st2" d="M47.2,322.3H36.1c-0.8,0-1.5,0.7-1.5,1.5v9.6c0,0.8,0.7,1.5,1.5,1.5h11.1c0.8,0,1.5-0.7,1.5-1.5v-9.6
					C48.7,323,48,322.3,47.2,322.3z"/>
			</g>
		</g>
		<g id="Shape_52_copy_2_10_">
			<g>
				<path class="st2" d="M65.5,322.3H54.4c-0.8,0-1.5,0.7-1.5,1.5v9.6c0,0.8,0.7,1.5,1.5,1.5h11.1c0.8,0,1.5-0.7,1.5-1.5v-9.6
					C67,323,66.4,322.3,65.5,322.3z"/>
			</g>
		</g>
		<g id="Shape_52_copy_3_10_">
			<g>
				<path class="st2" d="M83.6,322.3H72.4c-0.8,0-1.5,0.7-1.5,1.5v9.6c0,0.8,0.7,1.5,1.5,1.5h11.1c0.8,0,1.5-0.7,1.5-1.5v-9.6
					C85.1,323,84.4,322.3,83.6,322.3z"/>
			</g>
		</g>
		<g id="Shape_52_copy_4_10_">
			<g>
				<path class="st2" d="M101.9,322.3H90.8c-0.8,0-1.5,0.7-1.5,1.5v9.6c0,0.8,0.7,1.5,1.5,1.5h11.1c0.8,0,1.5-0.7,1.5-1.5v-9.6
					C103.4,323,102.7,322.3,101.9,322.3z"/>
			</g>
		</g>
	</g>
</g>
</svg>
